<?xml version="1.0" encoding="UTF-8" standalone="no"?>
<svg width="38px" height="41px" viewBox="0 0 38 41" version="1.1" xmlns="http://www.w3.org/2000/svg" xmlns:xlink="http://www.w3.org/1999/xlink" xmlns:sketch="http://www.bohemiancoding.com/sketch/ns">
    <!-- Generator: Sketch 3.1.1 (8761) - http://www.bohemiancoding.com/sketch -->
    <title>Group 8</title>
    <desc>Created with Sketch.</desc>
    <defs></defs>
    <g id="Page-1" stroke="none" stroke-width="1" fill="none" fill-rule="evenodd" sketch:type="MSPage">
        <g id="Artboard-12" sketch:type="MSArtboardGroup" transform="translate(-438.000000, -2339.000000)" fill="#000000">
            <g id="Group-8" sketch:type="MSLayerGroup" transform="translate(438.727273, 2339.000000)">
                <path d="M35.7653283,0 L9.4157197,0 C9.40337121,0 9.39308081,0.539891193 9.38073232,0.539891193 C9.22020202,0.539891193 9.06790404,0.859292472 8.9114899,0.898444886 C8.80652778,0.929354687 8.69333333,1.06329716 8.59660354,1.10657088 C8.51016414,1.14366264 8.44224747,1.28172642 8.36198232,1.32912145 C8.21380051,1.42185085 8.06150253,1.54136875 7.94007576,1.66500795 C7.93184343,1.67531122 7.91949495,1.69179645 7.91126263,1.70209972 L0.493939394,9.65210057 C-0.0658585859,10.2517507 -0.216098485,10.7483682 0.109078283,11.5005067 C0.436313131,12.2547058 1.17722222,12.3639205 1.99633838,12.3639205 L8.23232323,12.3639205 L8.23232323,38.497127 C8.23232323,39.1833246 8.13559343,39.8262484 8.70362374,40.2074693 C9.27165404,40.5928115 9.77382576,40.6690557 10.4077146,40.411474 L22.7026894,35.387601 L35.0511742,40.411474 C35.300202,40.512446 35.5348232,40.5577804 35.7961995,40.5577804 C36.1995833,40.5577804 36.1975253,40.4382625 36.5432828,40.2074693 C37.1113131,39.8221271 37.0475126,39.1833246 37.0475126,38.497127 L37.0475126,3.12395057 C37.0454545,1.98440923 36.903447,0 35.7653283,0 L35.7653283,0 Z M32.9292929,35.441178 L22.9743561,31.2539303 C22.7253283,31.1550189 22.6594697,31.1035026 22.3960354,31.1035026 C22.1346591,31.1035026 22.4063258,31.1550189 22.1593561,31.2539303 L12.3484848,35.441178 L12.3484848,4.12130682 L32.9292929,4.12130682 L32.9292929,35.441178 L32.9292929,35.441178 Z" id="Shape" sketch:type="MSShapeGroup"></path>
                <path d="M29.9244949,16.6583222 C28.4982449,15.0922256 26.3125631,15.2302893 25.2547096,16.0669146 C24.5364394,16.6377156 23.278952,18.2800564 23.278952,18.2800564 C23.278952,18.2800564 22.0194066,16.6377156 21.3011364,16.0669146 C20.2432828,15.2302893 18.0596591,15.0922256 16.631351,16.6583222 C15.1948106,18.2388433 15.4561869,20.7631437 17.0861869,22.3498469 C18.3230934,23.5491472 23.278952,27.9136111 23.278952,27.9136111 C24.7731187,26.582429 28.7843182,23.0133773 29.4696591,22.3498469 C31.1017172,20.7631437 31.3610354,18.2388433 29.9244949,16.6583222 L29.9244949,16.6583222 Z" id="Shape" sketch:type="MSShapeGroup"></path>
            </g>
        </g>
    </g>
</svg>