<?xml version="1.0" encoding="utf-8"?>
<!-- Generator: Adobe Illustrator 16.0.0, SVG Export Plug-In . SVG Version: 6.00 Build 0)  -->
<!DOCTYPE svg PUBLIC "-//W3C//DTD SVG 1.1//EN" "http://www.w3.org/Graphics/SVG/1.1/DTD/svg11.dtd">
<svg version="1.1"
	 id="Layer_1" xmlns:svg="http://www.w3.org/2000/svg" xmlns:sodipodi="http://sodipodi.sourceforge.net/DTD/sodipodi-0.dtd" xmlns:rdf="http://www.w3.org/1999/02/22-rdf-syntax-ns#" xmlns:inkscape="http://www.inkscape.org/namespaces/inkscape" xmlns:dc="http://purl.org/dc/elements/1.1/" xmlns:cc="http://creativecommons.org/ns#"
	 xmlns="http://www.w3.org/2000/svg" xmlns:xlink="http://www.w3.org/1999/xlink" x="0px" y="0px" width="500px" height="500px"
	 viewBox="0 0 500 500" enable-background="new 0 0 500 500" xml:space="preserve">
<path id="rect2986" fill="#FFFFFF" d="M50,0C22.3,0,0,22.3,0,50v400c0,27.7,22.3,50,50,50h400c27.7,0,50-22.3,50-50V50
	c0-27.7-22.3-50-50-50H50z M287.875,90.031h48.938v56.062h-29.344c-23.381,0-26.688,7.625-26.688,22.688v33.344h56.031
	l-6.656,56.062h-49.375v168.125h-72.688V258.188h-39.406v-56.062h39.406V164.75C208.094,117.549,227.889,90.031,287.875,90.031z"/>
</svg>
